PWD /home/ja2/nauka/engineering_thesis/manuscript
INPUT /etc/texmf/web2c/texmf.cnf
INPUT /usr/share/texmf/web2c/texmf.cnf
INPUT /usr/share/texlive/texmf-dist/web2c/texmf.cnf
INPUT /var/lib/texmf/web2c/pdftex/pdflatex.fmt
INPUT /home/ja2/nauka/engineering_thesis/manuscript/dodatekA.tex
OUTPUT /home/ja2/nauka/engineering_thesis/manuscript/dodatekA.log
INPUT /usr/share/texlive/texmf-dist/fonts/map/fontname/texfonts.map
INPUT /usr/share/texlive/texmf-dist/fonts/tfm/public/cm/cmti10.tfm
