{  
   "values_indicator":"positional",
   "delimiter/assignment_sign":"\t",
   "server_host":"192.168.0.40",
   "commands":[],
   "parameters":[  
      {  
         "sinus":{  
            "max_value":1,
            "min_value":0,
            "period":2,
            "unit":"h",
            "enable_markers":true,
            "enable_statistics":true,
            "enable_control":true
         }
      },
      {  
         "exp":{
         	"max_value":10000,
         	"min_value":0,
         	"period":2,
         	"unit":"h",
            "enable_markers":false,
            "enable_statistics":false,
            "enable_control":true
         }
      },
      {  
         "arccos":{
         	"max_value":0,
         	"min_value":0,
         	"period":2,
         	"unit":"h",
            "enable_markers":false,
            "enable_statistics":true,
            "enable_control":false
         }
      },
      {  
         "tanh":{
            "max_value":0,
            "min_value":0,
            "period":2,
            "unit":"h",
            "enable_markers":false,
            "enable_statistics":false,
            "enable_control":false
         }
      }
   ]
}