{  
   "values_indicator":"key_value",
   "delimiter/assignment_sign":"=",
   "server_host":"192.168.0.104",
   "commands":[],
   "parameters":[  
      {  
         "T_XRAY1":{  
            "max_value":27,
            "min_value":25,
            "period":30,
            "unit":"s",
            "enable_markers":false,
            "enable_statistics":true,
            "enable_control":true
         }
      },
      {  
         "T_XRAY2":{
         	"max_value":989,
         	"min_value":980,
         	"period":30,
         	"unit":"s",
            "enable_markers":true,
            "enable_statistics":true,
            "enable_control":false
         }
      },
      {  
         "T_PCB":{
         	"max_value":39,
         	"min_value":37,
         	"period":2,
         	"unit":"m",
            "enable_markers":false,
            "enable_statistics":true,
            "enable_control":true
         }
      },
      {  
         "TA":{
            "max_value":39,
            "min_value":37,
            "period":2,
            "unit":"m",
            "enable_markers":false,
            "enable_statistics":true,
            "enable_control":true
         }
      },
      {  
         "PR":{
            "max_value":39,
            "min_value":37,
            "period":2,
            "unit":"m",
            "enable_markers":false,
            "enable_statistics":true,
            "enable_control":true
         }
      },
      {  
         "RH":{
            "max_value":39,
            "min_value":37,
            "period":2,
            "unit":"m",
            "enable_markers":false,
            "enable_statistics":true,
            "enable_control":true
         }
      },
      {  
         "HV_V":{
            "max_value":39,
            "min_value":37,
            "period":2,
            "unit":"m",
            "enable_markers":false,
            "enable_statistics":true,
            "enable_control":true
         }
      },
      {  
         "HV_I":{
            "max_value":39,
            "min_value":37,
            "period":2,
            "unit":"m",
            "enable_markers":false,
            "enable_statistics":true,
            "enable_control":true
         }
      },
      {  
         "DAC":{
            "max_value":39,
            "min_value":37,
            "period":2,
            "unit":"m",
            "enable_markers":false,
            "enable_statistics":true,
            "enable_control":true
         }
      },
      {  
         "V_REF":{
            "max_value":39,
            "min_value":37,
            "period":2,
            "unit":"m",
            "enable_markers":false,
            "enable_statistics":true,
            "enable_control":true
         }
      },
      {  
         "ANA_I":{
            "max_value":39,
            "min_value":37,
            "period":2,
            "unit":"m",
            "enable_markers":false,
            "enable_statistics":true,
            "enable_control":true
         }
      },
      {  
         "ANA_V":{
            "max_value":39,
            "min_value":37,
            "period":2,
            "unit":"m",
            "enable_markers":false,
            "enable_statistics":true,
            "enable_control":true
         }
      },
      {  
         "DIG_I":{
            "max_value":39,
            "min_value":37,
            "period":2,
            "unit":"m",
            "enable_markers":false,
            "enable_statistics":true,
            "enable_control":true
         }
      },
      {  
         "DIG_V":{
            "max_value":39,
            "min_value":37,
            "period":2,
            "unit":"m",
            "enable_markers":false,
            "enable_statistics":true,
            "enable_control":true
         }
      },
      {  
         "P5V_I":{
            "max_value":39,
            "min_value":37,
            "period":2,
            "unit":"m",
            "enable_markers":false,
            "enable_statistics":true,
            "enable_control":true
         }
      },
      {  
         "P5V_V":{
            "max_value":39,
            "min_value":37,
            "period":2,
            "unit":"m",
            "enable_markers":false,
            "enable_statistics":true,
            "enable_control":true
         }
      },
      {  
         "PWR_SET":{
            "max_value":39,
            "min_value":37,
            "period":2,
            "unit":"m",
            "enable_markers":false,
            "enable_statistics":true,
            "enable_control":true
         }
      },
      {  
         "HV_RAMP":{
            "max_value":39,
            "min_value":37,
            "period":2,
            "unit":"m",
            "enable_markers":false,
            "enable_statistics":true,
            "enable_control":true
         }
      },
      {  
         "HV_IMAX":{
            "max_value":39,
            "min_value":37,
            "period":2,
            "unit":"m",
            "enable_markers":false,
            "enable_statistics":true,
            "enable_control":true
         }
      },
      {  
         "HV_VMAX":{
            "max_value":39,
            "min_value":37,
            "period":2,
            "unit":"m",
            "enable_markers":false,
            "enable_statistics":true,
            "enable_control":true
         }
      },
      {
         "STATUS":{
            "max_value":100,
            "min_value":100,
            "period":1,
            "unit":"s",
            "enable_markers":false,
            "enable_statistics":false,
            "enable_control":false
         }
      }
   ]
}